<?xml version="1.0" standalone="no"?>
<!DOCTYPE svg PUBLIC "-//W3C//DTD SVG 20010904//EN"
 "http://www.w3.org/TR/2001/REC-SVG-20010904/DTD/svg10.dtd">
<svg version="1.0" xmlns="http://www.w3.org/2000/svg"
 width="300.000000pt" height="300.000000pt" viewBox="0 0 300.000000 300.000000"
 preserveAspectRatio="xMidYMid meet">
<metadata>
Created by potrace 1.11, written by Peter Selinger 2001-2013
</metadata>
<g transform="translate(0.000000,300.000000) scale(0.100000,-0.100000)"
fill="#000000" stroke="none">
<path d="M0 1500 l0 -1500 1500 0 1500 0 0 1500 0 1500 -1500 0 -1500 0 0
-1500z m530 865 c0 -14 1 -25 3 -25 1 0 31 9 65 20 192 60 391 15 537 -121
121 -113 177 -242 177 -404 0 -162 -56 -291 -177 -404 -147 -137 -344 -181
-537 -121 -34 11 -64 20 -65 20 -2 0 -3 -63 -3 -140 l0 -140 -160 0 -160 0 0
670 0 670 160 0 160 0 0 -25z m1638 10 c80 -19 152 -53 220 -105 l53 -41 42
36 c77 66 228 125 319 125 l38 0 0 -159 0 -159 -44 -6 c-62 -10 -129 -56 -162
-111 -21 -36 -29 -67 -35 -136 -11 -115 -23 -158 -67 -242 -90 -173 -253 -280
-449 -294 -167 -12 -310 42 -428 161 -113 114 -165 237 -165 391 0 154 52 277
165 391 137 139 325 193 513 149z m-355 -1366 c13 -94 102 -182 199 -195 122
-17 239 72 263 199 l7 37 159 0 159 0 0 -27 c-1 -59 -31 -166 -65 -231 -94
-180 -260 -287 -465 -299 -159 -10 -300 45 -415 161 -102 103 -165 238 -165
355 l0 41 159 0 158 0 6 -41z"/>
<path d="M674 2056 c-48 -21 -105 -77 -125 -121 -24 -53 -24 -147 0 -201 22
-47 89 -109 139 -125 97 -32 221 15 277 105 26 43 30 59 30 121 0 62 -4 78
-30 121 -44 70 -109 108 -194 111 -41 2 -78 -2 -97 -11z"/>
<path d="M1967 2056 c-59 -22 -103 -62 -132 -121 -109 -222 168 -438 355 -278
58 50 84 105 84 178 0 159 -158 274 -307 221z"/>
</g>
</svg>
