<svg width="24" height="24" viewBox="0 0 24 24" fill="none" xmlns="http://www.w3.org/2000/svg">
<path fill-rule="evenodd" clip-rule="evenodd"
      d="M9 10V19L10.1526 19.3842C11.3762 19.7921 12.6575 20 13.9473 20H17.5406C18.9706 20 20.2019 18.9906 20.4823 17.5883L21.2315 13.8424C21.6189 11.9054 20.0611 10.1293 18.0902 10.2607L14.5 10.5L14.821 6.9694C14.9171 5.91183 14.0844 5 13.0225 5C12.3881 5 11.8003 5.33282 11.4739 5.87677L9 10Z" fill="white"/>
<rect x="2" y="9" width="5" height="11" rx="1" fill="white"/>
</svg>
