
<svg width="33px" height="33px" viewBox="0 0 33 33" version="1.1" xmlns="http://www.w3.org/2000/svg" xmlns:xlink="http://www.w3.org/1999/xlink">
    <g id="UI" stroke="none" stroke-width="1" fill="none" fill-rule="evenodd">
        <g id="Papertrail-filter" transform="translate(-799.000000, -93.000000)">
            <g id="Group-22" transform="translate(800.000000, 94.000000)">
                <circle id="Oval-Copy-4" stroke="#E8E7EE" opacity="0.444800967" fill-rule="nonzero" cx="15.5" cy="15.5" r="15.5"></circle>
                <g id="Printer-2" transform="translate(6.000000, 6.000000)">
                    <g id="Printer">
                        <rect id="bound" x="0" y="0" width="19" height="19"></rect>
                        <path d="M12.6666667,13.4583333 L12.6666667,16.4166667 C12.6666667,16.9689514 12.2189514,17.4166667 11.6666667,17.4166667 L7.33333333,17.4166667 C6.78104858,17.4166667 6.33333333,16.9689514 6.33333333,16.4166667 L6.33333333,13.4583333 L4.375,13.4583333 C3.2704305,13.4583333 2.375,12.5629028 2.375,11.4583333 L2.375,6.75 C2.375,5.6454305 3.2704305,4.75 4.375,4.75 L14.625,4.75 C15.7295695,4.75 16.625,5.6454305 16.625,6.75 L16.625,11.4583333 C16.625,12.5629028 15.7295695,13.4583333 14.625,13.4583333 L12.6666667,13.4583333 Z M13.8541667,8.70833333 C14.5100048,8.70833333 15.0416667,8.17667147 15.0416667,7.52083333 C15.0416667,6.86499519 14.5100048,6.33333333 13.8541667,6.33333333 C13.1983285,6.33333333 12.6666667,6.86499519 12.6666667,7.52083333 C12.6666667,8.17667147 13.1983285,8.70833333 13.8541667,8.70833333 Z M7.91666667,11.0833333 L7.91666667,15.8333333 L11.0833333,15.8333333 L11.0833333,11.0833333 L7.91666667,11.0833333 Z" id="Combined-Shape" fill="#ABAFC3"></path>
                        <rect id="Combined-Shape-Copy" fill="#ABAFC3" opacity="0.3" x="6.33333333" y="1.58333333" width="6.33333333" height="1.58333333" rx="0.791666667"></rect>
                    </g>
                </g>
            </g>
        </g>
    </g>
</svg>